please open firefox	open	open
open firefox	open	open
launch firefox	open	open
start firefox	open	open
begin firefox	open	open
can you open libreoffice?	open	open
What is the weather like today?	google	google
Can you email my friend?	email	install
I want java installed	install	install
Accuracy: 8/9